^C:\USERS\PIZZA\DOCUMENTS\REPOSITORY\ZORCISH\ZORCISH\ZORCISH\STDAFX.CPP
/c /ZI /nologo /W3 /WX- /sdl /Od /Oy- /D WIN32 /D _DEBUG /D _CONSOLE /D _UNICODE /D UNICODE /Gm /EHsc /RTC1 /MDd /GS /fp:precise /Zc:wchar_t /Zc:forScope /Zc:inline /Yc"stdafx.h" /Fp"DEBUG\ZORCISH.PCH" /Fo"DEBUG\\" /Fd"DEBUG\VC140.PDB" /Gd /TP /analyze- C:\USERS\PIZZA\DOCUMENTS\REPOSITORY\ZORCISH\ZORCISH\ZORCISH\STDAFX.CPP
^C:\USERS\PIZZA\DOCUMENTS\REPOSITORY\ZORCISH\ZORCISH\ZORCISH\ABOUT.CPP
/c /ZI /nologo /W3 /WX- /sdl /Od /Oy- /D WIN32 /D _DEBUG /D _CONSOLE /D _UNICODE /D UNICODE /Gm /EHsc /RTC1 /MDd /GS /fp:precise /Zc:wchar_t /Zc:forScope /Zc:inline /Yu"stdafx.h" /Fp"DEBUG\ZORCISH.PCH" /Fo"DEBUG\\" /Fd"DEBUG\VC140.PDB" /Gd /TP /analyze- C:\USERS\PIZZA\DOCUMENTS\REPOSITORY\ZORCISH\ZORCISH\ZORCISH\ABOUT.CPP
^C:\USERS\PIZZA\DOCUMENTS\REPOSITORY\ZORCISH\ZORCISH\ZORCISH\GAMEMAIN.CPP
/c /ZI /nologo /W3 /WX- /sdl /Od /Oy- /D WIN32 /D _DEBUG /D _CONSOLE /D _UNICODE /D UNICODE /Gm /EHsc /RTC1 /MDd /GS /fp:precise /Zc:wchar_t /Zc:forScope /Zc:inline /Yu"stdafx.h" /Fp"DEBUG\ZORCISH.PCH" /Fo"DEBUG\\" /Fd"DEBUG\VC140.PDB" /Gd /TP /analyze- C:\USERS\PIZZA\DOCUMENTS\REPOSITORY\ZORCISH\ZORCISH\ZORCISH\GAMEMAIN.CPP
^C:\USERS\PIZZA\DOCUMENTS\REPOSITORY\ZORCISH\ZORCISH\ZORCISH\GAMESTATE.CPP
/c /ZI /nologo /W3 /WX- /sdl /Od /Oy- /D WIN32 /D _DEBUG /D _CONSOLE /D _UNICODE /D UNICODE /Gm /EHsc /RTC1 /MDd /GS /fp:precise /Zc:wchar_t /Zc:forScope /Zc:inline /Yu"stdafx.h" /Fp"DEBUG\ZORCISH.PCH" /Fo"DEBUG\\" /Fd"DEBUG\VC140.PDB" /Gd /TP /analyze- C:\USERS\PIZZA\DOCUMENTS\REPOSITORY\ZORCISH\ZORCISH\ZORCISH\GAMESTATE.CPP
^C:\USERS\PIZZA\DOCUMENTS\REPOSITORY\ZORCISH\ZORCISH\ZORCISH\MAINMENU.CPP
/c /ZI /nologo /W3 /WX- /sdl /Od /Oy- /D WIN32 /D _DEBUG /D _CONSOLE /D _UNICODE /D UNICODE /Gm /EHsc /RTC1 /MDd /GS /fp:precise /Zc:wchar_t /Zc:forScope /Zc:inline /Yu"stdafx.h" /Fp"DEBUG\ZORCISH.PCH" /Fo"DEBUG\\" /Fd"DEBUG\VC140.PDB" /Gd /TP /analyze- C:\USERS\PIZZA\DOCUMENTS\REPOSITORY\ZORCISH\ZORCISH\ZORCISH\MAINMENU.CPP
^C:\USERS\PIZZA\DOCUMENTS\REPOSITORY\ZORCISH\ZORCISH\ZORCISH\STATEMANAGER.CPP
/c /ZI /nologo /W3 /WX- /sdl /Od /Oy- /D WIN32 /D _DEBUG /D _CONSOLE /D _UNICODE /D UNICODE /Gm /EHsc /RTC1 /MDd /GS /fp:precise /Zc:wchar_t /Zc:forScope /Zc:inline /Yu"stdafx.h" /Fp"DEBUG\ZORCISH.PCH" /Fo"DEBUG\\" /Fd"DEBUG\VC140.PDB" /Gd /TP /analyze- C:\USERS\PIZZA\DOCUMENTS\REPOSITORY\ZORCISH\ZORCISH\ZORCISH\STATEMANAGER.CPP
^C:\USERS\PIZZA\DOCUMENTS\REPOSITORY\ZORCISH\ZORCISH\ZORCISH\ZORCISH.CPP
/c /ZI /nologo /W3 /WX- /sdl /Od /Oy- /D WIN32 /D _DEBUG /D _CONSOLE /D _UNICODE /D UNICODE /Gm /EHsc /RTC1 /MDd /GS /fp:precise /Zc:wchar_t /Zc:forScope /Zc:inline /Yu"stdafx.h" /Fp"DEBUG\ZORCISH.PCH" /Fo"DEBUG\\" /Fd"DEBUG\VC140.PDB" /Gd /TP /analyze- C:\USERS\PIZZA\DOCUMENTS\REPOSITORY\ZORCISH\ZORCISH\ZORCISH\ZORCISH.CPP
^C:\USERS\PIZZA\DOCUMENTS\REPOSITORY\ZORCISH\ZORCISH\ZORCISH\GAMEPLAY.CPP
/c /ZI /nologo /W3 /WX- /sdl /Od /Oy- /D WIN32 /D _DEBUG /D _CONSOLE /D _UNICODE /D UNICODE /Gm /EHsc /RTC1 /MDd /GS /fp:precise /Zc:wchar_t /Zc:forScope /Zc:inline /Yu"stdafx.h" /Fp"DEBUG\ZORCISH.PCH" /Fo"DEBUG\\" /Fd"DEBUG\VC140.PDB" /Gd /TP /analyze- C:\USERS\PIZZA\DOCUMENTS\REPOSITORY\ZORCISH\ZORCISH\ZORCISH\GAMEPLAY.CPP
^C:\USERS\PIZZA\DOCUMENTS\REPOSITORY\ZORCISH\ZORCISH\ZORCISH\ENDSCORE.CPP
/c /ZI /nologo /W3 /WX- /sdl /Od /Oy- /D WIN32 /D _DEBUG /D _CONSOLE /D _UNICODE /D UNICODE /Gm /EHsc /RTC1 /MDd /GS /fp:precise /Zc:wchar_t /Zc:forScope /Zc:inline /Yu"stdafx.h" /Fp"DEBUG\ZORCISH.PCH" /Fo"DEBUG\\" /Fd"DEBUG\VC140.PDB" /Gd /TP /analyze- C:\USERS\PIZZA\DOCUMENTS\REPOSITORY\ZORCISH\ZORCISH\ZORCISH\ENDSCORE.CPP
^C:\USERS\PIZZA\DOCUMENTS\REPOSITORY\ZORCISH\ZORCISH\ZORCISH\HISCORES.CPP
/c /ZI /nologo /W3 /WX- /sdl /Od /Oy- /D WIN32 /D _DEBUG /D _CONSOLE /D _UNICODE /D UNICODE /Gm /EHsc /RTC1 /MDd /GS /fp:precise /Zc:wchar_t /Zc:forScope /Zc:inline /Yu"stdafx.h" /Fp"DEBUG\ZORCISH.PCH" /Fo"DEBUG\\" /Fd"DEBUG\VC140.PDB" /Gd /TP /analyze- C:\USERS\PIZZA\DOCUMENTS\REPOSITORY\ZORCISH\ZORCISH\ZORCISH\HISCORES.CPP
^C:\USERS\PIZZA\DOCUMENTS\REPOSITORY\ZORCISH\ZORCISH\ZORCISH\HELPME.CPP
/c /ZI /nologo /W3 /WX- /sdl /Od /Oy- /D WIN32 /D _DEBUG /D _CONSOLE /D _UNICODE /D UNICODE /Gm /EHsc /RTC1 /MDd /GS /fp:precise /Zc:wchar_t /Zc:forScope /Zc:inline /Yu"stdafx.h" /Fp"DEBUG\ZORCISH.PCH" /Fo"DEBUG\\" /Fd"DEBUG\VC140.PDB" /Gd /TP /analyze- C:\USERS\PIZZA\DOCUMENTS\REPOSITORY\ZORCISH\ZORCISH\ZORCISH\HELPME.CPP
^C:\USERS\PIZZA\DOCUMENTS\REPOSITORY\ZORCISH\ZORCISH\ZORCISH\LEVELSELECT.CPP
/c /ZI /nologo /W3 /WX- /sdl /Od /Oy- /D WIN32 /D _DEBUG /D _CONSOLE /D _UNICODE /D UNICODE /Gm /EHsc /RTC1 /MDd /GS /fp:precise /Zc:wchar_t /Zc:forScope /Zc:inline /Yu"stdafx.h" /Fp"DEBUG\ZORCISH.PCH" /Fo"DEBUG\\" /Fd"DEBUG\VC140.PDB" /Gd /TP /analyze- C:\USERS\PIZZA\DOCUMENTS\REPOSITORY\ZORCISH\ZORCISH\ZORCISH\LEVELSELECT.CPP
